<?xml version="1.0" encoding="UTF-8" standalone="no"?>
<!-- Created with Inkscape (http://www.inkscape.org/) -->

<svg
   xmlns:dc="http://purl.org/dc/elements/1.1/"
   xmlns:cc="http://creativecommons.org/ns#"
   xmlns:rdf="http://www.w3.org/1999/02/22-rdf-syntax-ns#"
   xmlns:svg="http://www.w3.org/2000/svg"
   xmlns="http://www.w3.org/2000/svg"
   xmlns:sodipodi="http://sodipodi.sourceforge.net/DTD/sodipodi-0.dtd"
   xmlns:inkscape="http://www.inkscape.org/namespaces/inkscape"
   width="132.29167mm"
   height="110.666mm"
   viewBox="0 0 132.29167 110.666"
   version="1.1"
   id="svg1867"
   inkscape:version="0.92.4 (5da689c313, 2019-01-14)"
   sodipodi:docname="poddery.svg"
   inkscape:export-filename="/home/HDir02/fsci/diaspora/images/podderywide.png"
   inkscape:export-xdpi="300.04999"
   inkscape:export-ydpi="300.04999">
  <defs
     id="defs1861" />
  <sodipodi:namedview
     id="base"
     pagecolor="#ffffff"
     bordercolor="#666666"
     borderopacity="1.0"
     inkscape:pageopacity="0.0"
     inkscape:pageshadow="2"
     inkscape:zoom="1"
     inkscape:cx="221.34664"
     inkscape:cy="175.923"
     inkscape:document-units="mm"
     inkscape:current-layer="layer1"
     showgrid="false"
     inkscape:window-width="1920"
     inkscape:window-height="1056"
     inkscape:window-x="0"
     inkscape:window-y="0"
     inkscape:window-maximized="0"
     units="mm" />
  <metadata
     id="metadata1864">
    <rdf:RDF>
      <cc:Work
         rdf:about="">
        <dc:format>image/svg+xml</dc:format>
        <dc:type
           rdf:resource="http://purl.org/dc/dcmitype/StillImage" />
        <dc:title></dc:title>
      </cc:Work>
    </rdf:RDF>
  </metadata>
  <g
     inkscape:label="Layer 1"
     inkscape:groupmode="layer"
     id="layer1"
     transform="translate(-103.26799,-72.431109)">
    <g
       id="g943"
       transform="matrix(1.7342683,0,0,1.7342683,-75.82641,-130.55972)">
      <path
         inkscape:export-ydpi="300.04999"
         inkscape:export-xdpi="300.04999"
         sodipodi:nodetypes="sccccccccssccccccccccccccscs"
         inkscape:connector-curvature="0"
         id="path75-5-5"
         d="m 166.71183,133.19342 c -0.40939,-0.31714 -2.0805,-1.58989 -2.0805,-1.58989 0,0 0.0258,-0.11386 1.65841,-2.44925 1.10127,-1.57538 1.55208,-2.50914 1.25601,-2.60159 -0.25397,-0.0793 -1.38286,-0.43099 -2.50862,-0.7815 -1.12576,-0.3505 -2.08812,-0.66995 -2.1386,-0.70989 -0.0504,-0.04 0.16002,-0.92051 0.46777,-1.95684 l 0.55957,-1.88421 2.26347,0.70448 c 1.24491,0.38745 2.41603,0.70447 2.60246,0.70447 0.18644,0 0.33899,-1.25601 0.33899,-2.79115 v -2.79111 h 2.23292 2.2329 v 2.94308 2.94309 l 2.32595,-0.70734 c 1.27927,-0.38903 2.44368,-0.70862 2.58758,-0.71017 0.26435,-0.003 1.03498,2.40297 1.03882,3.24307 8e-4,0.25015 -0.96085,0.72922 -2.13778,1.06463 -1.17696,0.33538 -2.2629,0.72267 -2.41326,0.8606 -0.15027,0.13796 0.38851,1.16605 1.19751,2.28474 0.80896,1.11868 1.47624,2.24093 1.48285,2.49388 0.0174,0.66556 -2.96327,2.5602 -3.27309,2.08051 -1.23314,-1.90948 -2.89083,-4.19567 -3.04148,-4.19466 -0.1024,6.8e-4 -0.91195,1.00118 -1.79918,2.22331 -0.88719,1.22213 -1.72452,2.21673 -1.86074,2.21023 -0.13609,-0.007 -0.58261,-0.27133 -0.99196,-0.58849 z"
         style="fill:#000000;stroke-width:1" />
      <path
         inkscape:export-ydpi="300.04999"
         inkscape:export-xdpi="300.04999"
         sodipodi:nodetypes="ccsccscc"
         inkscape:connector-curvature="0"
         id="path4525-6-73-3-53-6-2-65-3-6"
         d="m 103.26799,117.73807 c 5.26809,0.42248 16.35982,-2.00621 22.3539,2.96055 4.91449,4.07223 10.69104,16.12127 17.49827,14.00608 4.46801,-1.38841 6.7996,-7.24723 11.54342,-8.42641 2.4166,-0.6009 5.08766,1.05867 7.23754,2.04961 -11.01108,7.32457 -11.05112,33.9793 -26.96329,39.64749 -10.41386,3.70962 -20.15414,3.25301 -28.76279,12.88293 0.91902,-9.91422 41.57192,-33.84766 -2.90705,-63.12025 z"
         style="fill:#000000;fill-opacity:1;stroke:none;stroke-width:0.19271299px;stroke-linecap:butt;stroke-linejoin:miter;stroke-opacity:1" />
    </g>
  </g>
</svg>
